^F:\VCPROJECT\VCNORPROJECT\GRAMMAANALYSIS\GRAMMAANALYSIS\DEBUG\GRAMMAANALYSIS.OBJ
/OUT:"F:\VCPROJECT\VCNORPROJECT\GRAMMAANALYSIS\DEBUG\GRAMMAANALYSIS.EXE" /INCREMENTAL /NOLOGO KERNEL32.LIB USER32.LIB GDI32.LIB WINSPOOL.LIB COMDLG32.LIB ADVAPI32.LIB SHELL32.LIB OLE32.LIB OLEAUT32.LIB UUID.LIB ODBC32.LIB ODBCCP32.LIB /MANIFEST /MANIFESTUAC:"level='asInvoker' uiAccess='false'" /manifest:embed /DEBUG:FASTLINK /PDB:"F:\VCPROJECT\VCNORPROJECT\GRAMMAANALYSIS\DEBUG\GRAMMAANALYSIS.PDB" /TLBID:1 /DYNAMICBASE /NXCOMPAT /IMPLIB:"F:\VCPROJECT\VCNORPROJECT\GRAMMAANALYSIS\DEBUG\GRAMMAANALYSIS.LIB" /MACHINE:X86 DEBUG\GRAMMAANALYSIS.OBJ
^F:\VCPROJECT\VCNORPROJECT\GRAMMAANALYSIS\GRAMMAANALYSIS\DEBUG\CODES.OBJ|F:\VCPROJECT\VCNORPROJECT\GRAMMAANALYSIS\GRAMMAANALYSIS\DEBUG\EXECUTE.OBJ|F:\VCPROJECT\VCNORPROJECT\GRAMMAANALYSIS\GRAMMAANALYSIS\DEBUG\GRA.OBJ|F:\VCPROJECT\VCNORPROJECT\GRAMMAANALYSIS\GRAMMAANALYSIS\DEBUG\LEX.OBJ|F:\VCPROJECT\VCNORPROJECT\GRAMMAANALYSIS\GRAMMAANALYSIS\DEBUG\SYMBOLTABLE.OBJ|F:\VCPROJECT\VCNORPROJECT\GRAMMAANALYSIS\GRAMMAANALYSIS\DEBUG\TREE.OBJ
/OUT:"F:\VCPROJECT\VCNORPROJECT\GRAMMAANALYSIS\DEBUG\GRAMMAANALYSIS.EXE" /INCREMENTAL /NOLOGO KERNEL32.LIB USER32.LIB GDI32.LIB WINSPOOL.LIB COMDLG32.LIB ADVAPI32.LIB SHELL32.LIB OLE32.LIB OLEAUT32.LIB UUID.LIB ODBC32.LIB ODBCCP32.LIB /MANIFEST /MANIFESTUAC:"level='asInvoker' uiAccess='false'" /manifest:embed /DEBUG:FASTLINK /PDB:"F:\VCPROJECT\VCNORPROJECT\GRAMMAANALYSIS\DEBUG\GRAMMAANALYSIS.PDB" /TLBID:1 /DYNAMICBASE /NXCOMPAT /IMPLIB:"F:\VCPROJECT\VCNORPROJECT\GRAMMAANALYSIS\DEBUG\GRAMMAANALYSIS.LIB" /MACHINE:X86 DEBUG\CODES.OBJDEBUG\EXECUTE.OBJDEBUG\GRA.OBJDEBUG\LEX.OBJDEBUG\SYMBOLTABLE.OBJDEBUG\TREE.OBJ
